<?xml version="1.0" encoding="UTF-8"?>
<svg width="19px" height="22px" viewBox="0 0 19 22" version="1.1" xmlns="http://www.w3.org/2000/svg" xmlns:xlink="http://www.w3.org/1999/xlink">
    <!-- Generator: Sketch 49.3 (51167) - http://www.bohemiancoding.com/sketch -->
    <title>记录</title>
    <desc>Created with Sketch.</desc>
    <defs></defs>
    <g id="Page-1" stroke="none" stroke-width="1" fill-rule="evenodd">
        <g id="我的" transform="translate(-171.000000, -196.000000)">
            <path d="M176.397755,202.94602 L184.602245,202.94602 C185.027906,202.94602 185.373481,202.600551 185.373481,202.174784 C185.373481,201.749123 185.028012,201.403653 184.602245,201.403653 L176.397755,201.403653 C175.972094,201.403653 175.626625,201.749228 175.626625,202.174784 C175.626625,202.600445 175.972094,202.94602 176.397755,202.94602 Z M184.602245,206.017874 L176.397755,206.017874 C175.971883,206.018085 175.626836,206.363237 175.626625,206.78911 C175.626625,207.214559 175.972094,207.56024 176.397755,207.56024 L184.602245,207.56024 C185.028117,207.560029 185.37327,207.214983 185.373481,206.78911 C185.373164,206.363237 185.028012,206.018191 184.602245,206.017874 Z M184.602245,210.644392 L176.397755,210.644392 C175.971883,210.644578 175.626836,210.989756 175.626625,211.415629 C175.626625,211.84129 175.972094,212.186865 176.397755,212.186865 L184.602245,212.186865 C185.028117,212.186759 185.373375,211.841475 185.373481,211.415629 C185.373164,210.989756 185.028117,210.644683 184.602245,210.644392 Z M179.546865,198.313207 L180.811549,198.313207 C181.450861,198.313207 181.968034,197.795002 181.968034,197.156616 C181.968034,196.518019 181.450015,196 180.811549,196 L179.546865,196 C178.908294,196 178.390169,196.518125 178.390169,197.156616 C178.390169,197.795002 178.908399,198.313207 179.546865,198.313207 Z M186.915557,196.771051 L186.144717,196.771051 C185.718765,196.771157 185.373481,197.116309 185.37327,197.542182 C185.373587,197.968134 185.718871,198.313207 186.144717,198.313312 L186.915557,198.313312 C187.766245,198.313312 188.457818,199.005018 188.457818,199.855494 L188.457818,214.506366 C188.457818,215.356763 187.766245,216.048442 186.915557,216.048442 L174.084443,216.048442 C173.233967,216.048442 172.542182,215.356763 172.542182,214.506366 L172.542182,199.855494 C172.542182,199.005018 173.233861,198.313312 174.084443,198.313312 L174.855468,198.313312 C175.281129,198.313312 175.626625,197.967843 175.626625,197.542182 C175.626625,197.116521 175.281235,196.771051 174.855468,196.771051 L174.084443,196.771051 C172.381111,196.771051 171,198.152056 171,199.855388 L171,214.506261 C171,216.209619 172.381111,217.590518 174.084443,217.590518 L186.915451,217.590518 C188.618783,217.590518 190,216.209408 190,214.506261 L190,199.855388 C190.000106,198.152056 188.618889,196.771051 186.915557,196.771051 Z" id="记录"></path>
        </g>
    </g>
</svg>