<?xml version="1.0" encoding="utf-8"?>
<!-- Generator: Adobe Illustrator 21.0.0, SVG Export Plug-In . SVG Version: 6.00 Build 0)  -->
<svg version="1.1" id="图层_1" xmlns="http://www.w3.org/2000/svg" xmlns:xlink="http://www.w3.org/1999/xlink" x="0px" y="0px"
	 viewBox="0 0 32 32" style="enable-background:new 0 0 32 32;" xml:space="preserve">
<style type="text/css">
</style>
<g>
	<g>
		<defs>
			<rect id="SVGID_1_" x="1.4" y="1.324" width="30" height="30.073"/>
		</defs>
		<clipPath id="SVGID_2_">
			<use xlink:href="#SVGID_1_"  style="overflow:visible;"/>
		</clipPath>
		<path class="st0" d="M22.802,17.056l-0.008-0.004c-0.457-0.287-2.703-1.594-5.519-3.205c-0.797-0.461-1.546-0.898-2.116-1.23
			l-0.02-0.012c-0.542-0.316-0.935-0.546-1.016-0.587c-0.295-0.154-0.591-0.235-0.878-0.235c-0.902,0-1.639,0.809-1.639,1.805
			v10.185c0,0.975,0.704,1.712,1.639,1.712c0.299,0,0.538-0.085,0.7-0.251l0.061-0.065l0.081-0.028
			c0.089-0.032,0.526-0.295,0.951-0.546c0.615-0.368,1.437-0.862,2.335-1.351c1.611-0.939,2.954-1.74,3.933-2.323l0.053-0.032
			c0.809-0.481,1.299-0.773,1.465-0.862c0.457-0.271,0.757-0.854,0.757-1.481C23.571,17.917,23.267,17.335,22.802,17.056
			L22.802,17.056z M20.981,18.978c-1.064,0.652-3.023,1.764-4.492,2.578c-0.716,0.409-1.392,0.817-1.93,1.149l-0.032,0.02
			c-0.174,0.105-0.34,0.206-0.486,0.295l-0.571,0.344v-9.449l0.567,0.336c0.647,0.384,1.445,0.846,2.363,1.372
			c1.558,0.955,3.533,2.076,4.569,2.663l0.595,0.336L20.981,18.978z M20.981,18.978"/>
		<path class="st0" d="M26.946,5.907h-6.175l1.716-3.071c0.251-0.461,0.117-1.06-0.316-1.392c-0.461-0.263-1.016-0.085-1.319,0.425
			l-2.25,4.038h-4.848l-2.258-4.047c-0.303-0.502-0.854-0.676-1.311-0.413C9.744,1.788,9.61,2.371,9.869,2.844l1.712,3.067h-5.73
			C3.44,5.911,1.4,8.04,1.4,10.561v16.15c0,2.521,2.04,4.65,4.451,4.65h21.095c2.497,0,4.451-2.044,4.451-4.65V10.557
			C31.397,8.036,29.358,5.907,26.946,5.907L26.946,5.907z M29.519,26.71c0,1.509-1.129,2.687-2.574,2.687H5.851
			c-1.445,0-2.574-1.182-2.574-2.687v-16.15c0-1.509,1.129-2.687,2.574-2.687h21.095c1.445,0,2.574,1.182,2.574,2.687V26.71z
			 M29.519,26.71"/>
	</g>
</g>
</svg>
