<?xml version="1.0" encoding="UTF-8"?>
<svg width="58px" height="16px" viewBox="0 0 58 16" version="1.1" xmlns="http://www.w3.org/2000/svg" xmlns:xlink="http://www.w3.org/1999/xlink">
    <!-- Generator: Sketch 50.2 (55047) - http://www.bohemiancoding.com/sketch -->
    <title>Path 2</title>
    <desc>Created with Sketch.</desc>
    <defs>
        <linearGradient x1="5.30878579%" y1="2.80328587%" x2="118.56556%" y2="116.966062%" id="linearGradient-1">
            <stop stop-color="#169378" offset="0%"></stop>
            <stop stop-color="#11755F" offset="100%"></stop>
        </linearGradient>
    </defs>
    <g id="首页" stroke="none" stroke-width="1" fill="none" fill-rule="evenodd" stroke-linecap="round" stroke-linejoin="round">
        <g id="iPhone-8" transform="translate(-291.000000, -152.000000)" stroke="url(#linearGradient-1)" stroke-width="2">
            <g id="Group" transform="translate(185.000000, 97.000000)">
                <g id="Group-2-Copy-2">
                    <g id="Card-1-Copy">
                        <g id="chart" transform="translate(0.000000, 51.000000)">
                            <polyline id="Path-2" points="107 15.7600645 111.381103 9.91000468 113.711544 8.88664844 114.720088 10.4875724 117.496383 10.4875724 119.332176 11.9429405 121.227506 11.9429405 122.806798 11.1653127 124.944751 9.91000468 127.550941 5 130.225621 6.42648638 133.510889 5 135.449192 5.81965136 136.109021 6.74763859 138.409917 6.74763859 140.757368 8.32197835 142.560483 8.32197835 146.584365 9.26480875 147.97878 13.0596217 149.574635 15.7600645 151.218388 17.3726489 151.741685 18.7540275 154.2006 16.0749318 156.097273 17.3726489 157.728044 19 159.809594 18.239143 160.736667 16.8355185 164 16.3149285"></polyline>
                        </g>
                    </g>
                </g>
            </g>
        </g>
    </g>
</svg>